[
    {
    	"name" : "Rommikola",
    	"ingredients" : [
    		{
    			"ingredient" : "Rommi",
    			"amount" : "4 cl"
    		},
    		{
    			"ingredient" : "Kola",
    			"amount" : "1 dl"
    		}
    	],
    	"description" : "Sekoita kaikki ainekset keskenään :)"
    },
    {
        "name" : "Mojito",
        "ingredients" : [
            {
                "ingredient" : "Vaalea rommi",
                "amount" : "4 cl"
            },
            {
                "ingredient" : "Limemehu",
                "amount" : "2 cl"
            },
            {
                "ingredient" : "Mintun oksa",
                "amount" : "2 kpl"
            },
            {
                "ingredient" : "Sokerisiirappi",
                "amount" : "1.5 cl"
            },
            {
                "ingredient" : "Soodavesi",
                "amount" : "6 cl"
            }
        ],
        "description" : "Murskaa minttu siirapin kanssa tarjoilulasin pohjalla. Lisää rommi ja limemehu. Täytä jäämurskalla. Lisää soodavesi. Koristele limelohkolla ja mintunlehdillä."
    },
    {
        "name": "El Capitan",
        "ingredients" : [
            {
                "ingredient" : "Pisco",
                "amount" : "4 cl"
            },
            {
                "ingredient" : "Makea vermutti",
                "amount" : "3 cl"
            },
            {
                "ingredient" : "Angostura katkero",
                "amount" : "0.1 cl"
            }
        ],
        "description" : "Sekoita sekoituslasissa jäiden kera. Suodata viilennettyyn lasiin. Koristele sitruunankuorella."
    },
    {
        "name" : "Caipirissima",
        "ingredients" : [
            {
                "ingredient" : "Vaalea rommi",
                "amount" : "4 cl"
            },
            {
                "ingredient" : "Lime lohkoina",
                "amount" : "0.5 kpl"
            },
            {
                "ingredient" : "Sokerisiirappi",
                "amount" : "1.5 cl"
            }
        ],
        "description" : "Murskaa limelohkot siirapin kanssa ravistimen pohjalla. Lisää rommi. Ravista murskatun jään kera. Kumoa lasiin."
    },
    {
        "name" : "Brown Derby",
        "ingredients" : [
            {
                "ingredient" : "Tumma rommi",
                "amount" : "4 cl"
            },
            {
                "ingredient" : "Limemehu",
                "amount" : "2 cl"
            },
            {
                "ingredient" : "Vaahterasiirappi",
                "amount" : "1 cl"
            }
        ],
        "description" : "Ravista jäiden kanssa. Suodata viileään lasiin."
    },
    {
        "name" : "Continental",
        "ingredients" : [
            {
                "ingredient" : "Vaalea rommi",
                "amount" : "3 cl"
            },
            {
                "ingredient": "Minttulikööri",
                "amount": "1 cl"
            },
            {
                "ingredient" : "Limemehu",
                "amount" : "2 cl"
            },
            {
                "ingredient" : "Sokerisiirappi",
                "amount" : "0.5 cl"
            }
        ],
        "description" : "Ravista jäiden kanssa. Suodata viileään lasiin. Koristele sitruunankuorella."
    },
    {
        "name" : "El Nacional",
        "ingredients" : [
            {
                "ingredient" : "Vaalea rommi",
                "amount" : "3 cl"
            },
            {
                "ingredient": "Aprikoosilikööri",
                "amount": "1.5 cl"
            },
            {
                "ingredient" : "Limemehu",
                "amount" : "1.5 cl"
            },
            {
                "ingredient" : "Sokerisiirappi",
                "amount" : "0.5 cl"
            }
        ],
        "description" : "Ravista jäiden kanssa. Suodata viileään lasiin. Koristele sitruunankuorella."
    },
    {
        "name" : "Canchánchara",
        "ingredients" : [
            {
                "ingredient" : "Tumma rommi",
                "amount" : "4 cl"
            },
            {
                "ingredient" : "Limemehu",
                "amount" : "1 cl"
            },
            {
                "ingredient" : "Hunajasiirappi",
                "amount" : "1.5 cl"
            }
        ],
        "description" : "Lisää ainekset jäillä täytettyyn lasiin. Koristele limelohkolla."
    },
    {
        "name" : "Especial Treacle",
        "ingredients" : [
            {
                "ingredient" : "Tumma rommi",
                "amount" : "4 cl"
            },
            {
                "ingredient": "Omenamehu",
                "amount": "4 cl"
            },
            {
                "ingredient" : "Sokerisiirappi",
                "amount" : "1 cl"
            },
            {
                "ingredient" : "Angostura katkero",
                "amount" : "0.2 cl"
            }
        ],
        "description" : "Lisää ainekset jäillä täytettyyn lasiin. Koristele appelsiininkuorella."
    },
    {
        "name" : "Sidecar",
        "ingredients" : [
            {
                "ingredient" : "Brandy",
                "amount" : "4 cl"
            },
            {
                "ingredient": "Triple sec",
                "amount": "2 cl"
            },
            {
                "ingredient" : "Sitruunamehu",
                "amount" : "1.5 cl"
            }
        ],
        "description" : "Ravista jäiden kanssa. Suodata viileään lasiin. Koristele appelsiinisiivulla."
    },
    {
        "name" : "Between the Sheets",
        "ingredients" : [
            {
                "ingredient" : "Konjakki",
                "amount" : "2 cl"
            },
            {
                "ingredient": "Vaalea rommi",
                "amount": "2 cl"
            },
            {
                "ingredient" : "Triple sec",
                "amount" : "2 cl"
            },
            {
                "ingredient" : "Sitruunamehu",
                "amount" : "1.5 cl"
            }
        ],
        "description" : "Ravista jäiden kanssa. Suodata viileään lasiin. Koristele sitruunankuorella."
    },
    {
        "name" : "Lumberjack",
        "ingredients" : [
            {
                "ingredient" : "Konjakki",
                "amount" : "4 cl"
            },
            {
                "ingredient": "Sitruunamehu",
                "amount": "1.5 cl"
            },
            {
                "ingredient" : "Vaahterasiirappi",
                "amount" : "1.5 cl"
            },
            {
                "ingredient" : "Angostura katkero",
                "amount" : "0.3 cl"
            }
        ],
        "description" : "Ravista jäiden kanssa. Suodata murskatulla jäällä täytettyyn lasiin. Koristele ripauksella kanelia."
    },
    {
        "name" : "Apricot Sour",
        "ingredients" : [
            {
                "ingredient" : "Konjakki",
                "amount" : "2 cl"
            },
            {
                "ingredient": "Aprikoosilikööri",
                "amount": "2 cl"
            },
            {
                "ingredient" : "Sitruunamehu",
                "amount" : "2 cl"
            },
            {
                "ingredient" : "Sokerisiirappi",
                "amount" : "1 cl"
            }
        ],
        "description" : "Ravista jäiden kanssa. Suodata jäillä täytettyyn lasiin. Koristele sitruunanlohkolla." 
    },
    {
        "name" : "Snow Honey",
        "ingredients" : [
            {
                "ingredient" : "Konjakki",
                "amount" : "4 cl"
            },
            {
                "ingredient": "Hunaja",
                "amount": "2 tl"
            },
            {
                "ingredient" : "Kuuma kerma",
                "amount" : "4 cl"
            },
            {
                "ingredient" : "Kuuma maito",
                "amount" : "6 cl"
            }
        ],
        "description" : "Lisää ainekset lämpimään mukiin. Koristele muskottipähkinällä."
    },
    {
        "name" : "Horse's Neck",
        "ingredients" : [
            {
                "ingredient" : "Brandy",
                "amount" : "4 cl"
            },
            {
                "ingredient": "Inkivääriolut",
                "amount": "12 cl"
            },
            {
                "ingredient" : "Angostura katkero",
                "amount" : "0.1 cl"
            }
        ],
        "description" : "Lisää ainekset jäillä täytettyyn lasiin. Koristele sitruunankuorella."
    },
    {
        "name" : "Margarita",
        "ingredients" : [
            {
                "ingredient" : "Tequila",
                "amount" : "4 cl"
            },
            {
                "ingredient": "Triple sec",
                "amount": "1.5 cl"
            },
            {
                "ingredient" : "Limemehu",
                "amount" : "2 cl"
            },
            {
                "ingredient" : "Agavesiirappi",
                "amount" : "0.25 cl"
            }
        ],
        "description" : "Kostuta lasin reuna limellä ja kuorruta suolalla. Ravista jäiden kanssa. Suodata viileään lasiin. Koristele limesiivulla."
    },
    {
        "name" : "Sea of Cortez",
        "ingredients" : [
            {
                "ingredient" : "Tequila",
                "amount" : "3 cl"
            },
            {
                "ingredient": "Mustaherukkalikööri",
                "amount": "1.5 cl"
            },
            {
                "ingredient" : "Triple sec",
                "amount" : "0.5 cl"
            },
            {
                "ingredient" : "Limemehu",
                "amount" : "2 cl"
            }
        ],
        "description" : "Ravista jäiden kanssa. Suodata viileään lasiin. Koristele limesiivulla."
    },
    {
        "name" : "White Irish",
        "ingredients" : [
            {
                "ingredient" : "Irlantilainen viski",
                "amount" : "2 cl"
            },
            {
                "ingredient": "Kahvilikööri",
                "amount": "2 cl"
            },
            {
                "ingredient" : "Kerma",
                "amount" : "2 cl"
            }
        ],
        "description" : "Lisää ainekset jäillä täytettyyn lasiin. Kaada kerma varovasti päälle."
    },
    {
        "name" : "White Russian",
        "ingredients" : [
            {
                "ingredient" : "Vodka",
                "amount" : "2 cl"
            },
            {
                "ingredient": "Kahvilikööri",
                "amount": "2 cl"
            },
            {
                "ingredient" : "Kerma",
                "amount" : "2 cl"
            }
        ],
        "description" : "Lisää ainekset jäillä täytettyyn lasiin. Kaada kerma varovasti päälle."
    },
    {
        "name" : "Maple Leaf",
        "ingredients" : [
            {
                "ingredient" : "Bourbon",
                "amount" : "4 cl"
            },
            {
                "ingredient": "Sitruunamehu",
                "amount": "2 cl"
            },
            {
                "ingredient" : "Vaahterasiirappi",
                "amount" : "1 cl"
            }
        ],
        "description" : "Ravista jäiden kanssa. Suodata viileään lasiin."
    },
    {
        "name" : "Brown Derby Modern",
        "ingredients" : [
            {
                "ingredient" : "Bourbon",
                "amount" : "4 cl"
            },
            {
                "ingredient": "Greippimehu",
                "amount": "2 cl"
            },
            {
                "ingredient" : "Hunajasiirappi",
                "amount" : "1 cl"
            }
        ],
        "description" : "Ravista jäiden kanssa. Suodata viileään lasiin."
    },
    {
        "name" : "Manhattan",
        "ingredients" : [
            {
                "ingredient" : "Viski",
                "amount" : "4 cl"
            },
            {
                "ingredient": "Vermutti",
                "amount": "2 cl"
            },
            {
                "ingredient" : "Katkeroita",
                "amount" : "0,2 cl"
            }
        ],
        "description" : "Sekoita sekoituslasissa jäiden kera. Suodata viilennettyyn lasiin."
    },
     {
        "name" : "Cuba Libre",
        "ingredients" : [
            {
                "ingredient" : "Rommi",
                "amount" : "4 cl"
            },
            {
                "ingredient": "Limemehu",
                "amount": "0,5 cl"
            },
            {
                "ingredient" : "Kola",
                "amount" : "10 cl"
            }
        ],
        "description" : "Rakenna jäillä täytetyssä lasissa. Koristele limelohkolla."
    },
    {
        "name" : "Rum Tonic",
        "ingredients" : [
            {
                "ingredient" : "Rommi",
                "amount" : "4 cl"
            },
            {
                "ingredient": "Tonicvesi",
                "amount": "6 cl"
            }
        ],
        "description" : "Rakenna jäillä täytetyssä lasissa. Purista limelohko ja tiputa joukkoon."
    },
    {
        "name" : "Cuba Libre",
        "ingredients" : [
            {
                "ingredient" : "Rommi",
                "amount" : "4 cl"
            },
            {
                "ingredient": "Limemehu",
                "amount": "0,5 cl"
            },
            {
                "ingredient" : "Kola",
                "amount" : "10 cl"
            }
        ],
        "description" : "Rakenna jäillä täytetyssä lasissa. Koristele limelohkolla."
    },
         {
        "name" : "Sidecar",
        "ingredients" : [
            {
                "ingredient" : "Brandy",
                "amount" : "4 cl"
            },
            {
                "ingredient": "Triple Sec",
                "amount": "2 cl"
            },
            {
                "ingredient" : "Sitruunamehu",
                "amount" : "1,5 cl"
            }
        ],
        "description" : "Ravista jäiden kera.Suodata viilennettyyn lasiin. Koristele appelsiinisiivulla."
    },
          {
        "name" : "Paloma",
        "ingredients" : [
            {
                "ingredient" : "Tequila",
                "amount" : "4 cl"
            },
            {
                "ingredient": "Greippilimonaadi",
                "amount": "10 cl"
            },
            {
                "ingredient" : "Limemehu",
                "amount" : "1 cl"
            }
        ],
        "description" : "Rakenna jäillä täytetyssä lasissa. Koristele limelohkolla. "
    },
          {
        "name" : "Gimlet",
        "ingredients" : [
            {
                "ingredient" : "Gin",
                "amount" : "4 cl"
            },
            {
                "ingredient": "Sokerisiirappi",
                "amount": "1 cl"
            },
            {
                "ingredient" : "Limemehu",
                "amount" : "1 cl"
            }
        ],
        "description" : "Ravista jäiden kera.Suodata viilennettyyn lasiin. Koristele Limesiivulla."
    },
            {
        "name" : "Negroni",
        "ingredients" : [
            {
                "ingredient" : "Gin",
                "amount" : "2 cl"
            },
            {
                "ingredient": "Campari",
                "amount": "2 cl"
            },
            {
                "ingredient" : "Vermutti",
                "amount" : "2 cl"
            }
        ],
        "description" : "Rakenna jäillä täytetyssä lasissa. Koristele puolikkaalla appelsiinisiivulla"
    },
                {
        "name" : "Officer's club",
        "ingredients" : [
            {
                "ingredient" : "Gin",
                "amount" : "4 cl"
            },
            {
                "ingredient": "Greippimehu",
                "amount": "6 cl"
            },
            {
                "ingredient" : "Tonicvesi",
                "amount" : "6 cl"
            }
        ],
        "description" : "Rakenna jäillä täytetyssä lasissa. Koristele sitruunanlohkolla"
    },
                {
        "name" : "Appletini",
        "ingredients" : [
            {
                "ingredient" : "Vodka",
                "amount" : "3 cl"
            },
            {
                "ingredient": "Omenalikööriä",
                "amount": "3 cl"
            },
            {
                "ingredient" : "Omenamehu",
                "amount" : "3 cl"
            }
        ],
        "description" : "Ravista jäiden kera. Suodata viilennettyyn lasiin. Koristele kirsikalla."
    },
                {
        "name" : "Woo Woo",
        "ingredients" : [
            {
                "ingredient" : "Vodka",
                "amount" : "2 cl"
            },
            {
                "ingredient": "Persikkalikööriä",
                "amount": "3 cl"
            },
            {
                "ingredient" : "Karpalomehu",
                "amount" : "6 cl"
            }
        ],
        "description" : "Ravista jäiden kera. Suodata jäillä täytettyyn lasiin."
    },
    
                {
        "name" : "Madraz",
        "ingredients" : [
            {
                "ingredient" : "Vodka",
                "amount" : "4 cl"
            },
            {
                "ingredient": "Karpalomehu",
                "amount": "4 cl"
            },
            {
                "ingredient" : "Appelsiinimehu",
                "amount" : "10 cl"
            }
        ],
        "description" : "Ravista jäiden kera. Suodata jäillä täytettyyn lasiin."
    },
         {
        "name" : "Stone Sour",
        "ingredients" : [
            {
                "ingredient" : "Kookosrommi",
                "amount" : "5 cl"
            },
            {
                "ingredient": "Appelsiinimehu",
                "amount": "2 cl"
            },
            {
                "ingredient" : "Sitruunamehu",
                "amount" : "3 cl"
            }
        ],
        "description" : "Ravista jäiden kera. Suodata jäillä täytettyyn lasiin. Koristele katkeroilla ja appelsiininkuorella."
    },
         {
        "name" : "Bounty",
        "ingredients" : [
            {
                "ingredient" : "Kookosrommi",
                "amount" : "2 cl"
            },
            {
                "ingredient": "Kaakaolikööri",
                "amount": "3 cl"
            },
            {
                "ingredient" : "Kerma",
                "amount" : "3 cl"
            }
        ],
        "description" : "Rakenna jäillä täytetyssä lasissa."
    },
         {
        "name" : "Stupid Cupid",
        "ingredients" : [
            {
                "ingredient" : "Kanelilikööri",
                "amount" : "3 cl"
            },
            {
                "ingredient": "Kaakaolikööri",
                "amount": "3 cl"
            },
            {
                "ingredient" : "Irish Cream",
                "amount" : "3 cl"
            }
        ],
        "description" : "Koristele tarjoilulasi suklaasiirapilla. Ravista jäiden kera.Suodata viilennettyyn lasiin."
    },
         {
        "name" : "Banshee",
        "ingredients" : [
            {
                "ingredient" : "Banaanilikööri",
                "amount" : "3 cl"
            },
            {
                "ingredient": "Kaakaolikööri",
                "amount": "1,5 cl"
            },
            {
                "ingredient" : "Kerma",
                "amount" : "3 cl"
            }
        ],
        "description" : "Rakenna jäillä täytetyssä lasissa."
    },
         {
        "name" : "Banshee",
        "ingredients" : [
            {
                "ingredient" : "Banaanilikööri",
                "amount" : "3 cl"
            },
            {
                "ingredient": "Kaakaolikööri",
                "amount": "1,5 cl"
            },
            {
                "ingredient" : "Kerma",
                "amount" : "3 cl"
            }
        ],
        "description" : "Rakenna jäillä täytetyssä lasissa."
    },
         {
        "name" : "Godson",
        "ingredients" : [
            {
                "ingredient" : "Amaretto",
                "amount" : "2 cl"
            },
            {
                "ingredient": "Viski",
                "amount": "2 cl"
            },
            {
                "ingredient" : "Kerma",
                "amount" : "2 cl"
            }
        ],
        "description" : "Rakenna jäillä täytetyssä lasissa."
    },
         {
        "name" : "Two of Hearts",
        "ingredients" : [
            {
                "ingredient" : "Amaretto",
                "amount" : "3 cl"
            },
            {
                "ingredient": "Kaakaolikööri",
                "amount": "3 cl"
            },
            {
                "ingredient" : "Kerma",
                "amount" : "3 cl"
            }
        ],
        "description" : "Ravista jäiden kera. Suodata viilennettyyn lasiin. Koristele kaakaojauheella."
    }
]

